
(shmem)averag nprocs: 512  timElapsed: 101.183397 timRemap: 6.7068492 timRemapComm: 6.239978
(shmem)stddev nprocs: 512  timElapsed: 1.85356603 timRemap: 1.4234461 timRemapComm: 1.392191

(shmem)Lammps nprocs: 512  timElapsed: 105.681120 timRemap: 9.641258 timRemapComm: 9.111059 
(shmem)Lammps nprocs: 512  timElapsed: 99.295523 timRemap: 6.075811 timRemapComm: 5.627955 
(shmem)Lammps nprocs: 512  timElapsed: 99.541755 timRemap: 4.764076 timRemapComm: 4.320071 
(shmem)Lammps nprocs: 512  timElapsed: 99.911578 timRemap: 5.520027 timRemapComm: 5.064438 
(shmem)Lammps nprocs: 512  timElapsed: 101.250275 timRemap: 7.802154 timRemapComm: 7.217759 
(shmem)Lammps nprocs: 512  timElapsed: 99.785035 timRemap: 4.717134 timRemapComm: 4.300970 
(shmem)Lammps nprocs: 512  timElapsed: 101.043439 timRemap: 6.818878 timRemapComm: 6.374564 
(shmem)Lammps nprocs: 512  timElapsed: 102.699554 timRemap: 7.883167 timRemapComm: 7.427937 
(shmem)Lammps nprocs: 512  timElapsed: 104.400290 timRemap: 9.365686 timRemapComm: 8.838530 
(shmem)Lammps nprocs: 512  timElapsed: 99.092636 timRemap: 6.325435 timRemapComm: 5.876573 
(shmem)Lammps nprocs: 512  timElapsed: 101.310916 timRemap: 5.848972 timRemapComm: 5.405005 
(shmem)Lammps nprocs: 512  timElapsed: 99.174490 timRemap: 6.364790 timRemapComm: 5.902868 
(shmem)Lammps nprocs: 512  timElapsed: 101.678090 timRemap: 6.130883 timRemapComm: 5.683744 
(shmem)Lammps nprocs: 512  timElapsed: 101.445642 timRemap: 7.460964 timRemapComm: 7.010521 
(shmem)Lammps nprocs: 512  timElapsed: 101.440612 timRemap: 5.883504 timRemapComm: 5.437679 
