
(shmem)averag nprocs: 256  timElapsed: 189.730808 timRemap: 8.478518 timRemapComm: 7.546807 
(shmem)stddev nprocs: 256  timElapsed: 1.48693072 timRemap: 1.096028 timRemapComm: 1.092282 

(shmem)Lammps nprocs: 256  timElapsed: 189.882534 timRemap: 8.106112 timRemapComm: 7.211828 
(shmem)Lammps nprocs: 256  timElapsed: 190.779746 timRemap: 8.229038 timRemapComm: 7.337187 
(shmem)Lammps nprocs: 256  timElapsed: 191.295062 timRemap: 8.894688 timRemapComm: 8.002956 
(shmem)Lammps nprocs: 256  timElapsed: 190.682847 timRemap: 7.931392 timRemapComm: 7.002314 
(shmem)Lammps nprocs: 256  timElapsed: 189.683545 timRemap: 9.326733 timRemapComm: 8.394837 
(shmem)Lammps nprocs: 256  timElapsed: 187.451713 timRemap: 7.134051 timRemapComm: 6.228767 
(shmem)Lammps nprocs: 256  timElapsed: 189.561426 timRemap: 8.594864 timRemapComm: 7.661566 
(shmem)Lammps nprocs: 256  timElapsed: 189.184808 timRemap: 8.116077 timRemapComm: 7.078066 
(shmem)Lammps nprocs: 256  timElapsed: 188.819294 timRemap: 7.769273 timRemapComm: 6.844025 
(shmem)Lammps nprocs: 256  timElapsed: 189.611757 timRemap: 8.495745 timRemapComm: 7.523190 
(shmem)Lammps nprocs: 256  timElapsed: 190.120643 timRemap: 8.397063 timRemapComm: 7.442969 
(shmem)Lammps nprocs: 256  timElapsed: 190.375682 timRemap: 8.761806 timRemapComm: 7.809131 
(shmem)Lammps nprocs: 256  timElapsed: 193.144383 timRemap: 11.164855 timRemapComm: 10.258379 
(shmem)Lammps nprocs: 256  timElapsed: 190.348612 timRemap: 9.660500 timRemapComm: 8.660212 
(shmem)Lammps nprocs: 256  timElapsed: 191.087739 timRemap: 9.860909 timRemapComm: 8.958844 
(shmem)Lammps nprocs: 256  timElapsed: 186.500726 timRemap: 5.931939 timRemapComm: 5.029229 
(shmem)Lammps nprocs: 256  timElapsed: 188.469780 timRemap: 8.577141 timRemapComm: 7.638755 
(shmem)Lammps nprocs: 256  timElapsed: 188.154250 timRemap: 7.661145 timRemapComm: 6.760271 
