
(shmem)averag nprocs: 1024  timElapsed: 58.419381 timRemap: 5.432705 timRemapComm: 5.160499 
(shmem)stddev nprocs: 1024  timElapsed: 0.7929810 timRemap: 0.538929 timRemapComm: 0.538654 

(shmem)Lammps nprocs: 1024  timElapsed: 57.991301 timRemap: 4.987963 timRemapComm: 4.709703 
(shmem)Lammps nprocs: 1024  timElapsed: 58.127792 timRemap: 5.010293 timRemapComm: 4.751406 
(shmem)Lammps nprocs: 1024  timElapsed: 59.291348 timRemap: 5.297790 timRemapComm: 5.018939 
(shmem)Lammps nprocs: 1024  timElapsed: 58.262300 timRemap: 5.726424 timRemapComm: 5.462777 
(shmem)Lammps nprocs: 1024  timElapsed: 57.724066 timRemap: 5.277549 timRemapComm: 4.999470 
(shmem)Lammps nprocs: 1024  timElapsed: 59.780054 timRemap: 7.149668 timRemapComm: 6.870634 
(shmem)Lammps nprocs: 1024  timElapsed: 59.366370 timRemap: 5.939418 timRemapComm: 5.667754 
(shmem)Lammps nprocs: 1024  timElapsed: 59.368973 timRemap: 5.815469 timRemapComm: 5.538883 
(shmem)Lammps nprocs: 1024  timElapsed: 57.654611 timRemap: 5.026004 timRemapComm: 4.746971 
(shmem)Lammps nprocs: 1024  timElapsed: 57.307324 timRemap: 4.942257 timRemapComm: 4.662127 
(shmem)Lammps nprocs: 1024  timElapsed: 58.598438 timRemap: 5.425935 timRemapComm: 5.158399 
(shmem)Lammps nprocs: 1024  timElapsed: 57.159746 timRemap: 5.105032 timRemapComm: 4.830455 
(shmem)Lammps nprocs: 1024  timElapsed: 57.751082 timRemap: 5.282153 timRemapComm: 5.015450 
(shmem)Lammps nprocs: 1024  timElapsed: 59.408566 timRemap: 5.559927 timRemapComm: 5.296401 
(shmem)Lammps nprocs: 1024  timElapsed: 58.404873 timRemap: 4.943933 timRemapComm: 4.669056 
(shmem)Lammps nprocs: 1024  timElapsed: 58.513256 timRemap: 5.433478 timRemapComm: 5.169570 
