(mpi)Lammps nprocs: 4096  timElapsed: 178.949838  timRemap: 20.414744 timRemapComm: 19.832028
(mpi)Lammps nprocs: 2048  timElapsed: 132.883037  timRemap: 10.523594 timRemapComm: 10.066073
(mpi)Lammps nprocs: 1024  timElapsed: 118.844773  timRemap: 10.778895 timRemapComm: 10.378852
(mpi)Lammps nprocs: 512  timElapsed: 99.135807  timRemap: 4.737036 timRemapComm: 4.269769
(mpi)Lammps nprocs: 256  timElapsed: 92.837249  timRemap: 2.238871 timRemapComm: 1.818164
(mpi)Lammps nprocs: 128  timElapsed: 89.741166  timRemap: 2.166298 timRemapComm: 1.801037
(mpi)Lammps nprocs: 64  timElapsed: 88.303361  timRemap: 1.746931 timRemapComm: 1.349652
(mpi)Lammps nprocs: 32  timElapsed: 88.630457  timRemap: 1.795940 timRemapComm: 1.281826
(mpi)Lammps nprocs: 16  timElapsed: 87.828466  timRemap: 1.374408 timRemapComm: 0.809932
(mpi)Lammps nprocs: 8  timElapsed: 85.938253  timRemap: 1.101542 timRemapComm: 0.480596
(mpi)Lammps nprocs: 4096  timElapsed: 175.259488  timRemap: 15.371726 timRemapComm: 14.841691
(mpi)Lammps nprocs: 2048  timElapsed: 128.034817  timRemap: 8.566561 timRemapComm: 8.076475
(mpi)Lammps nprocs: 1024  timElapsed: 109.631545  timRemap: 5.470202 timRemapComm: 5.094955
(mpi)Lammps nprocs: 512  timElapsed: 98.126872  timRemap: 4.096321 timRemapComm: 3.672360
(mpi)Lammps nprocs: 256  timElapsed: 93.444876  timRemap: 2.732253 timRemapComm: 2.308465
(mpi)Lammps nprocs: 128  timElapsed: 90.167081  timRemap: 2.343038 timRemapComm: 1.986684
(mpi)Lammps nprocs: 64  timElapsed: 88.261045  timRemap: 1.736575 timRemapComm: 1.339284
(mpi)Lammps nprocs: 32  timElapsed: 88.581171  timRemap: 1.751726 timRemapComm: 1.242706
(mpi)Lammps nprocs: 4096  timElapsed: 169.565623  timRemap: 15.781193 timRemapComm: 15.196605
(mpi)Lammps nprocs: 16  timElapsed: 87.368401  timRemap: 1.375960 timRemapComm: 0.819386
(mpi)Lammps nprocs: 8  timElapsed: 85.881472  timRemap: 1.097739 timRemapComm: 0.471764
(mpi)Lammps nprocs: 2048  timElapsed: 132.056163  timRemap: 10.190763 timRemapComm: 9.687249
(mpi)Lammps nprocs: 1024  timElapsed: 112.806092  timRemap: 8.696006 timRemapComm: 8.292461
(mpi)Lammps nprocs: 512  timElapsed: 99.433194  timRemap: 5.080399 timRemapComm: 4.554674
(mpi)Lammps nprocs: 256  timElapsed: 92.889384  timRemap: 2.419025 timRemapComm: 2.001495
(mpi)Lammps nprocs: 128  timElapsed: 89.706089  timRemap: 2.157034 timRemapComm: 1.807591
(mpi)Lammps nprocs: 64  timElapsed: 88.311382  timRemap: 1.737500 timRemapComm: 1.341259
(mpi)Lammps nprocs: 32  timElapsed: 88.595069  timRemap: 1.748729 timRemapComm: 1.239208
(mpi)Lammps nprocs: 16  timElapsed: 88.472902  timRemap: 1.362451 timRemapComm: 0.801654
(mpi)Lammps nprocs: 8  timElapsed: 85.893120  timRemap: 1.104345 timRemapComm: 0.479676
(mpi)Lammps nprocs: 4096  timElapsed: 171.610800  timRemap: 15.198949 timRemapComm: 14.631378
(mpi)Lammps nprocs: 2048  timElapsed: 128.379868  timRemap: 8.446024 timRemapComm: 7.941863
(mpi)Lammps nprocs: 1024  timElapsed: 109.772072  timRemap: 5.504504 timRemapComm: 5.092648
(mpi)Lammps nprocs: 512  timElapsed: 98.351554  timRemap: 4.330446 timRemapComm: 3.908814
(mpi)Lammps nprocs: 256  timElapsed: 93.032264  timRemap: 2.442271 timRemapComm: 2.020350
(mpi)Lammps nprocs: 128  timElapsed: 90.082507  timRemap: 2.137627 timRemapComm: 1.786423
(mpi)Lammps nprocs: 64  timElapsed: 88.298962  timRemap: 1.784335 timRemapComm: 1.377455
(mpi)Lammps nprocs: 32  timElapsed: 88.600860  timRemap: 1.774517 timRemapComm: 1.268766
(mpi)Lammps nprocs: 16  timElapsed: 87.795614  timRemap: 1.393332 timRemapComm: 0.827514
(mpi)Lammps nprocs: 8  timElapsed: 85.914419  timRemap: 1.102801 timRemapComm: 0.472183
(mpi)Lammps nprocs: 4096  timElapsed: 163.636220  timRemap: 10.271214 timRemapComm: 9.744050
(mpi)Lammps nprocs: 2048  timElapsed: 130.253116  timRemap: 9.308979 timRemapComm: 8.772475
(mpi)Lammps nprocs: 1024  timElapsed: 107.904603  timRemap: 5.352963 timRemapComm: 4.978542
(mpi)Lammps nprocs: 512  timElapsed: 97.835380  timRemap: 3.844427 timRemapComm: 3.398054
(mpi)Lammps nprocs: 256  timElapsed: 93.265684  timRemap: 2.642402 timRemapComm: 2.214386
(mpi)Lammps nprocs: 128  timElapsed: 89.426190  timRemap: 1.840849 timRemapComm: 1.493489
(mpi)Lammps nprocs: 64  timElapsed: 88.264775  timRemap: 1.726870 timRemapComm: 1.327954
(mpi)Lammps nprocs: 32  timElapsed: 88.581442  timRemap: 1.734996 timRemapComm: 1.228153
(mpi)Lammps nprocs: 16  timElapsed: 87.519520  timRemap: 1.393257 timRemapComm: 0.834899
(mpi)Lammps nprocs: 8  timElapsed: 85.914809  timRemap: 1.091531 timRemapComm: 0.467386
(mpi)Lammps nprocs: 4096  timElapsed: 163.382161  timRemap: 10.353170 timRemapComm: 9.854532
(mpi)Lammps nprocs: 2048  timElapsed: 130.561037  timRemap: 9.003932 timRemapComm: 8.495136
(mpi)Lammps nprocs: 1024  timElapsed: 108.348850  timRemap: 5.369556 timRemapComm: 4.992543
(mpi)Lammps nprocs: 512  timElapsed: 97.993383  timRemap: 3.985602 timRemapComm: 3.565629
(mpi)Lammps nprocs: 256  timElapsed: 93.167528  timRemap: 2.518385 timRemapComm: 2.093086
(mpi)Lammps nprocs: 128  timElapsed: 89.814223  timRemap: 1.890216 timRemapComm: 1.540221
(mpi)Lammps nprocs: 64  timElapsed: 88.256720  timRemap: 1.735328 timRemapComm: 1.335675
(mpi)Lammps nprocs: 32  timElapsed: 88.568563  timRemap: 1.768939 timRemapComm: 1.261399
(mpi)Lammps nprocs: 4096  timElapsed: 170.499285  timRemap: 16.858633 timRemapComm: 16.277455
(mpi)Lammps nprocs: 16  timElapsed: 87.249818  timRemap: 1.374161 timRemapComm: 0.815324
(mpi)Lammps nprocs: 8  timElapsed: 85.912765  timRemap: 1.087830 timRemapComm: 0.462376
(mpi)Lammps nprocs: 2048  timElapsed: 132.945862  timRemap: 11.343615 timRemapComm: 10.883216
(mpi)Lammps nprocs: 1024  timElapsed: 110.816196  timRemap: 6.498814 timRemapComm: 6.101704
(mpi)Lammps nprocs: 512  timElapsed: 106.812116  timRemap: 11.520768 timRemapComm: 11.076848
(mpi)Lammps nprocs: 256  timElapsed: 93.196034  timRemap: 2.688169 timRemapComm: 2.264858
(mpi)Lammps nprocs: 128  timElapsed: 89.701407  timRemap: 2.194904 timRemapComm: 1.847471
(mpi)Lammps nprocs: 64  timElapsed: 88.314321  timRemap: 1.750504 timRemapComm: 1.355164
(mpi)Lammps nprocs: 32  timElapsed: 88.550456  timRemap: 1.742553 timRemapComm: 1.236425
(mpi)Lammps nprocs: 16  timElapsed: 87.504224  timRemap: 1.405927 timRemapComm: 0.851763
(mpi)Lammps nprocs: 8  timElapsed: 85.863080  timRemap: 1.090196 timRemapComm: 0.466782
(mpi)Lammps nprocs: 4096  timElapsed: 167.798161  timRemap: 14.150068 timRemapComm: 13.647293
(mpi)Lammps nprocs: 2048  timElapsed: 130.008004  timRemap: 8.634974 timRemapComm: 8.130690
(mpi)Lammps nprocs: 4096  timElapsed: 171.333616  timRemap: 16.985689 timRemapComm: 16.448420
(mpi)Lammps nprocs: 1024  timElapsed: 112.383581  timRemap: 7.121921 timRemapComm: 6.746289
(mpi)Lammps nprocs: 512  timElapsed: 100.794335  timRemap: 5.526454 timRemapComm: 5.084628
(mpi)Lammps nprocs: 2048  timElapsed: 133.508466  timRemap: 11.468189 timRemapComm: 11.009941
(mpi)Lammps nprocs: 256  timElapsed: 93.096564  timRemap: 2.592973 timRemapComm: 2.172268
(mpi)Lammps nprocs: 1024  timElapsed: 110.852640  timRemap: 6.493719 timRemapComm: 6.064891
(mpi)Lammps nprocs: 128  timElapsed: 90.184771  timRemap: 2.047210 timRemapComm: 1.707633
(mpi)Lammps nprocs: 512  timElapsed: 106.619598  timRemap: 11.402417 timRemapComm: 10.959825
(mpi)Lammps nprocs: 64  timElapsed: 88.216157  timRemap: 1.725818 timRemapComm: 1.318361
(mpi)Lammps nprocs: 256  timElapsed: 92.895501  timRemap: 2.245730 timRemapComm: 1.826114
(mpi)Lammps nprocs: 32  timElapsed: 88.583649  timRemap: 1.744930 timRemapComm: 1.238811
(mpi)Lammps nprocs: 128  timElapsed: 89.888634  timRemap: 2.136043 timRemapComm: 1.757539
(mpi)Lammps nprocs: 16  timElapsed: 87.213317  timRemap: 1.383634 timRemapComm: 0.816943
(mpi)Lammps nprocs: 64  timElapsed: 88.286924  timRemap: 1.745160 timRemapComm: 1.338611
(mpi)Lammps nprocs: 8  timElapsed: 86.216232  timRemap: 1.099345 timRemapComm: 0.475257
(mpi)Lammps nprocs: 32  timElapsed: 88.792100  timRemap: 1.741211 timRemapComm: 1.230160
(mpi)Lammps nprocs: 16  timElapsed: 87.884203  timRemap: 1.387038 timRemapComm: 0.822227
(mpi)Lammps nprocs: 8  timElapsed: 85.911775  timRemap: 1.094823 timRemapComm: 0.468208
(mpi)Lammps nprocs: 4096  timElapsed: 167.995425  timRemap: 14.109163 timRemapComm: 13.601242
(mpi)Lammps nprocs: 2048  timElapsed: 130.463693  timRemap: 8.570655 timRemapComm: 8.066359
(mpi)Lammps nprocs: 1024  timElapsed: 111.525041  timRemap: 6.978873 timRemapComm: 6.605555
(mpi)Lammps nprocs: 512  timElapsed: 100.722181  timRemap: 5.491155 timRemapComm: 5.044971
(mpi)Lammps nprocs: 256  timElapsed: 92.913544  timRemap: 2.497209 timRemapComm: 2.078207
(mpi)Lammps nprocs: 128  timElapsed: 89.700523  timRemap: 2.101295 timRemapComm: 1.727368
(mpi)Lammps nprocs: 64  timElapsed: 88.239427  timRemap: 1.719790 timRemapComm: 1.320411
(mpi)Lammps nprocs: 32  timElapsed: 88.524197  timRemap: 1.750438 timRemapComm: 1.244096
(mpi)Lammps nprocs: 16  timElapsed: 87.830667  timRemap: 1.398535 timRemapComm: 0.833622
(mpi)Lammps nprocs: 8  timElapsed: 85.909680  timRemap: 1.106996 timRemapComm: 0.486685
