Lammps nprocs: 2048  timElapsed: 131.397003  timeInput: 0.004050  timRemap: 8.193798  timSum: 0.003155 timBcast: 0.130880
Lammps nprocs: 2048  timElapsed: 134.714547  timeInput: 0.004548  timRemap: 10.754931 timSum: 0.004274 timBcast: 0.144603
Lammps nprocs: 2048  timElapsed: 132.471875  timeInput: 0.003948  timRemap: 9.136452  timSum: 0.003126 timBcast: 0.133804
Lammps nprocs: 2048  timElapsed: 130.564635  timeInput: 0.004068  timRemap: 7.946637  timSum: 0.003428 timBcast: 0.130465
Lammps nprocs: 2048  timElapsed: 135.083649  timeInput: 0.004044  timRemap: 10.037654 timSum: 0.003755 timBcast: 0.138636
